{
  "BoxEnemy" : {
      "health": 30
    , "points": 100
    , "coins": 8
    , "speed": 20
  }
  , "SlimEnemy" : {
      "health": 30
    , "points": 150
    , "coins": 10
    , "speed": 100
  }
  , "TinyAsteroid" : {
      "health": 30
    , "points": 25
    , "coins": 0
    , "speed": 30
    , "variants": [
        {"frameName": "asteroid_tiny1"}
      , {"frameName": "asteroid_tiny2"}
      , {"frameName": "asteroid_tiny3"}
      , {"frameName": "asteroid_tiny4"}
    ]
  }
  , "SmallAsteroid" : {
      "health": 75
    , "points": 50
    , "coins": 0
    , "speed": 25
    , "variants": [
        {"frameName": "asteroid_small1"}
      , {"frameName": "asteroid_small2"}
      , {"frameName": "asteroid_small3"}
      , {"frameName": "asteroid_small4"}
    ]
  }
  , "BigAsteroid" : {
      "health": 150
    , "points": 75
    , "coins": 0
    , "speed": 20
    , "variants": [
        {"frameName": "asteroid_big1"}
      , {"frameName": "asteroid_big2"}
    ]
  }
  , "HugeAsteroid" : {
      "health": 250
    , "points": 125
    , "coins": 0
    , "speed": 15
  }
}